net\techu\PersonasApp.class
com\example\demo\DemoApplication.class
net\techu\data\PersonaModel.class
net\techu\BeanContexto.class
net\techu\data\PersonaRepository.class
net\techu\BeanPersonalizacion.class
net\techu\PersonasController.class
